[
  {
    "number": 1,
    "lowerLevel": 2
  },
  {
    "number": 2,
    "upperLevel": 1,
    "rightLevel": 3,
    "requiredLevels": [1]
  },
  {
    "number": 3,
    "leftLevel": 2,
    "lowerLevel": 4,
    "requiredLevels": [2]
  },
  {
    "number": 4,
    "upperLevel": 3,
    "leftLevel": 5,
    "rightLevel": 6,
    "requiredLevels": [3]
  },
  {
    "number": 5,
    "rightLevel": 4,
    "requiredLevels": [4]
  },
  {
    "number": 6,
    "leftLevel": 4,
    "rightLevel": 10,
    "requiredLevels": [4]
  },
  {
    "number": 7,
    "leftLevel": 10,
    "rightLevel": 8,
    "requiredLevels": [8]
  },
  {
    "number": 8,
    "upperLevel": 9,
    "leftLevel": 7,
    "requiredLevels": [9]
  },
  {
    "number": 9,
    "lowerLevel": 8
  },
  {
    "number": 10,
    "leftLevel": 6,
    "rightLevel": 7,
    "lowerLevel": 11,
    "requiredLevels": [6,7]
  },
  {
    "number": 11,
    "upperLevel": 10,
    "requiredLevels": [10]
  },
  {
    "number": 20,
    "rightLevel": 21
  },
  {
    "number": 21,
    "leftLevel": 20,
    "rightLevel": 22,
    "requiredLevels": [20]
  },
  {
    "number": 22,
    "leftLevel": 21,
    "rightLevel": 23,
    "requiredLevels": [21]
  },
  {
    "number": 23,
    "leftLevel": 22,
    "requiredLevels": [22]
  }
]